{
	"record":[
		{"weiPageIdStr":"WP_5azn","title":"测试子插件","categoryName":"未分","pv":0,"uv":0,"orderCount":0,"shareCount":0,"remark":"","creater":"优选 ","updater":"","createTime":"2017-08-24 19:32:58","updateTime":"2017-08-24 19:32:58","weiPageTypeEnum":"COMMON"},
		{"weiPageIdStr":"WP_5aza","title":"测试微页面","categoryName":"未分","pv":0,"uv":0,"orderCount":0,"shareCount":0,"remark":"","creater":"优选 ","updater":"","createTime":"2017-08-24 19:07:07","updateTime":"2017-08-24 19:07:07","weiPageTypeEnum":"COMMON"},
		{"weiPageIdStr":"WP_5axn","title":"商品页","categoryName":"未分","pv":6,"uv":2,"orderCount":0,"shareCount":0,"remark":"","creater":"优选 ","updater":"优选 ","createTime":"2017-08-03 18:22:23","updateTime":"2017-08-11 14:07:37","weiPageTypeEnum":"COMMON"},
		{"weiPageIdStr":"WP_5axa","title":"test","categoryName":"未分","pv":3,"uv":2,"orderCount":0,"shareCount":0,"remark":"","creater":"优选 ","updater":"","createTime":"2017-07-08 14:44:24","updateTime":"2017-07-08 14:44:24","weiPageTypeEnum":"COMMON"},
		{"weiPageIdStr":"WP_5awn","title":"优选","categoryName":"未分","pv":13,"uv":8,"orderCount":0,"shareCount":2,"remark":"","creater":"林先生","updater":"优选 ","createTime":"2017-06-15 13:44:33","updateTime":"2017-06-15 13:44:45","weiPageTypeEnum":"COMMON"}
	],
	"hasMore":true,
	"pageNo":1,
	"pageCount":3,
	"pageSize":5,
	"totalCount":11,
	"lastId":"",
	"result":1,
	"msg":"请求成功",
	"errCode":"",
	"successValue":""
}